11_sim/rtlsim/wlf/sim_pat_tm_inc.vcd
$date
	Sat Dec 18 09:38:45 2021
$end
$version
	QuestaSim Version 2021.1
$end
$timescale
	1ps
$end
$scope module top $end
$var integer 32 ! i $end
$var wire 1 " vdd $end
$var wire 1 # gnd $end
$var reg 1 $ nreset $end
$var reg 1 % clk $end
$var reg 1 & tm_inc_pc $end
$var reg 1 ' tm_en $end
$var reg 4 ( rxd [3:0] $end
$var wire 1 ) txd [3] $end
$var wire 1 * txd [2] $end
$var wire 1 + txd [1] $end
$var wire 1 , txd [0] $end
$var wire 1 - test [3] $end
$var wire 1 . test [2] $end
$var wire 1 / test [1] $end
$var wire 1 0 test [0] $end
$var real 0 1 osc_pw1 $end
$var reg 256 2 testname [256:1] $end
$var reg 256 3 subtestname [256:1] $end
$scope task mylog $end
$var reg 512 4 sim_text [512:1] $end
$upscope $end
$scope task mywarn $end
$var reg 512 5 sim_text [512:1] $end
$upscope $end
$scope task myerr $end
$var reg 512 6 sim_text [512:1] $end
$upscope $end
$scope task check_error $end
$var reg 128 7 signalname [128:1] $end
$var reg 1 8 signalvalue $end
$var reg 1 9 signalexpected $end
$upscope $end
$scope task check_error8 $end
$var reg 128 : signalname [128:1] $end
$var reg 8 ; signalvalue [7:0] $end
$var reg 8 < signalexpected [7:0] $end
$upscope $end
$scope task check_error16 $end
$var reg 128 = signalname [128:1] $end
$var reg 16 > signalvalue [15:0] $end
$var reg 16 ? signalexpected [15:0] $end
$upscope $end
$scope task check_error32 $end
$var reg 128 @ signalname [128:1] $end
$var reg 32 A signalvalue [31:0] $end
$var reg 32 B signalexpected [31:0] $end
$upscope $end
$scope function hex2str $end
$var reg 64 C hex2str [63:0] $end
$var reg 32 D hexin [31:0] $end
$var integer 32 E i $end
$var reg 32 F temp [31:0] $end
$var reg 64 G temp_str [63:0] $end
$upscope $end
$scope module CHIP_I0 $end
$var wire 1 H nreset $end
$var wire 1 I clk $end
$var wire 1 J tm_inc_pc $end
$var wire 1 K tm_en $end
$var wire 1 L rxd [3] $end
$var wire 1 M rxd [2] $end
$var wire 1 N rxd [1] $end
$var wire 1 O rxd [0] $end
$var reg 4 P txd [3:0] $end
$var reg 4 Q test [3:0] $end
$var wire 1 R prog_addr [11] $end
$var wire 1 S prog_addr [10] $end
$var wire 1 T prog_addr [9] $end
$var wire 1 U prog_addr [8] $end
$var wire 1 V prog_addr [7] $end
$var wire 1 W prog_addr [6] $end
$var wire 1 X prog_addr [5] $end
$var wire 1 Y prog_addr [4] $end
$var wire 1 Z prog_addr [3] $end
$var wire 1 [ prog_addr [2] $end
$var wire 1 \ prog_addr [1] $end
$var wire 1 ] prog_addr [0] $end
$var wire 1 ^ prog_data [11] $end
$var wire 1 _ prog_data [10] $end
$var wire 1 ` prog_data [9] $end
$var wire 1 a prog_data [8] $end
$var wire 1 b prog_data [7] $end
$var wire 1 c prog_data [6] $end
$var wire 1 d prog_data [5] $end
$var wire 1 e prog_data [4] $end
$var wire 1 f prog_data [3] $end
$var wire 1 g prog_data [2] $end
$var wire 1 h prog_data [1] $end
$var wire 1 i prog_data [0] $end
$var wire 1 j ram_addr [7] $end
$var wire 1 k ram_addr [6] $end
$var wire 1 l ram_addr [5] $end
$var wire 1 m ram_addr [4] $end
$var wire 1 n ram_addr [3] $end
$var wire 1 o ram_addr [2] $end
$var wire 1 p ram_addr [1] $end
$var wire 1 q ram_addr [0] $end
$var wire 1 r ram_rdata [3] $end
$var wire 1 s ram_rdata [2] $end
$var wire 1 t ram_rdata [1] $end
$var wire 1 u ram_rdata [0] $end
$var wire 1 v ram_wdata [3] $end
$var wire 1 w ram_wdata [2] $end
$var wire 1 x ram_wdata [1] $end
$var wire 1 y ram_wdata [0] $end
$var wire 1 z ram_we $end
$var wire 1 { ee_ctrl [3] $end
$var wire 1 | ee_ctrl [2] $end
$var wire 1 } ee_ctrl [1] $end
$var wire 1 ~ ee_ctrl [0] $end
$var wire 1 !! ee_wdata [7] $end
$var wire 1 "! ee_wdata [6] $end
$var wire 1 #! ee_wdata [5] $end
$var wire 1 $! ee_wdata [4] $end
$var wire 1 %! ee_wdata [3] $end
$var wire 1 &! ee_wdata [2] $end
$var wire 1 '! ee_wdata [1] $end
$var wire 1 (! ee_wdata [0] $end
$var wire 1 )! ee_rdata [7] $end
$var wire 1 *! ee_rdata [6] $end
$var wire 1 +! ee_rdata [5] $end
$var wire 1 ,! ee_rdata [4] $end
$var wire 1 -! ee_rdata [3] $end
$var wire 1 .! ee_rdata [2] $end
$var wire 1 /! ee_rdata [1] $end
$var wire 1 0! ee_rdata [0] $end
$var wire 1 1! ee_addr [7] $end
$var wire 1 2! ee_addr [6] $end
$var wire 1 3! ee_addr [5] $end
$var wire 1 4! ee_addr [4] $end
$var wire 1 5! ee_addr [3] $end
$var wire 1 6! ee_addr [2] $end
$var wire 1 7! ee_addr [1] $end
$var wire 1 8! ee_addr [0] $end
$var wire 1 9! dummy [3] $end
$var wire 1 :! dummy [2] $end
$var wire 1 ;! dummy [1] $end
$var wire 1 <! dummy [0] $end
$scope module CORE_I0 $end
$var wire 1 =! nreset $end
$var wire 1 >! clk $end
$var wire 1 ?! tm_inc_pc $end
$var wire 1 @! tm_en $end
$var wire 1 A! prog_addr [11] $end
$var wire 1 B! prog_addr [10] $end
$var wire 1 C! prog_addr [9] $end
$var wire 1 D! prog_addr [8] $end
$var wire 1 E! prog_addr [7] $end
$var wire 1 F! prog_addr [6] $end
$var wire 1 G! prog_addr [5] $end
$var wire 1 H! prog_addr [4] $end
$var wire 1 I! prog_addr [3] $end
$var wire 1 J! prog_addr [2] $end
$var wire 1 K! prog_addr [1] $end
$var wire 1 L! prog_addr [0] $end
$var wire 1 M! prog_data [11] $end
$var wire 1 N! prog_data [10] $end
$var wire 1 O! prog_data [9] $end
$var wire 1 P! prog_data [8] $end
$var wire 1 Q! prog_data [7] $end
$var wire 1 R! prog_data [6] $end
$var wire 1 S! prog_data [5] $end
$var wire 1 T! prog_data [4] $end
$var wire 1 U! prog_data [3] $end
$var wire 1 V! prog_data [2] $end
$var wire 1 W! prog_data [1] $end
$var wire 1 X! prog_data [0] $end
$var wire 1 Y! rxd [3] $end
$var wire 1 Z! rxd [2] $end
$var wire 1 [! rxd [1] $end
$var wire 1 \! rxd [0] $end
$var wire 1 ]! txd [3] $end
$var wire 1 ^! txd [2] $end
$var wire 1 _! txd [1] $end
$var wire 1 `! txd [0] $end
$var wire 1 a! ee_ctrl [3] $end
$var wire 1 b! ee_ctrl [2] $end
$var wire 1 c! ee_ctrl [1] $end
$var wire 1 d! ee_ctrl [0] $end
$var wire 1 e! ee_wdata [7] $end
$var wire 1 f! ee_wdata [6] $end
$var wire 1 g! ee_wdata [5] $end
$var wire 1 h! ee_wdata [4] $end
$var wire 1 i! ee_wdata [3] $end
$var wire 1 j! ee_wdata [2] $end
$var wire 1 k! ee_wdata [1] $end
$var wire 1 l! ee_wdata [0] $end
$var wire 1 m! ee_rdata [7] $end
$var wire 1 n! ee_rdata [6] $end
$var wire 1 o! ee_rdata [5] $end
$var wire 1 p! ee_rdata [4] $end
$var wire 1 q! ee_rdata [3] $end
$var wire 1 r! ee_rdata [2] $end
$var wire 1 s! ee_rdata [1] $end
$var wire 1 t! ee_rdata [0] $end
$var wire 1 u! ee_addr [7] $end
$var wire 1 v! ee_addr [6] $end
$var wire 1 w! ee_addr [5] $end
$var wire 1 x! ee_addr [4] $end
$var wire 1 y! ee_addr [3] $end
$var wire 1 z! ee_addr [2] $end
$var wire 1 {! ee_addr [1] $end
$var wire 1 |! ee_addr [0] $end
$var wire 1 }! test [3] $end
$var wire 1 ~! test [2] $end
$var wire 1 !" test [1] $end
$var wire 1 "" test [0] $end
$var wire 1 #" ram_addr [7] $end
$var wire 1 $" ram_addr [6] $end
$var wire 1 %" ram_addr [5] $end
$var wire 1 &" ram_addr [4] $end
$var wire 1 '" ram_addr [3] $end
$var wire 1 (" ram_addr [2] $end
$var wire 1 )" ram_addr [1] $end
$var wire 1 *" ram_addr [0] $end
$var wire 1 +" ram_rdata [3] $end
$var wire 1 ," ram_rdata [2] $end
$var wire 1 -" ram_rdata [1] $end
$var wire 1 ." ram_rdata [0] $end
$var wire 1 /" ram_wdata [3] $end
$var wire 1 0" ram_wdata [2] $end
$var wire 1 1" ram_wdata [1] $end
$var wire 1 2" ram_wdata [0] $end
$var reg 1 3" ram_we $end
$var wire 1 4" REG_BANK_DATA [3] $end
$var wire 1 5" REG_BANK_DATA [2] $end
$var wire 1 6" REG_BANK_DATA [1] $end
$var wire 1 7" REG_BANK_DATA [0] $end
$var wire 1 8" REG_W [3] $end
$var wire 1 9" REG_W [2] $end
$var wire 1 :" REG_W [1] $end
$var wire 1 ;" REG_W [0] $end
$var wire 1 <" ALU_REG_IN [3] $end
$var wire 1 =" ALU_REG_IN [2] $end
$var wire 1 >" ALU_REG_IN [1] $end
$var wire 1 ?" ALU_REG_IN [0] $end
$var wire 1 @" REG_ZERO $end
$var wire 1 A" REG_CARRY $end
$var reg 12 B" PC [11:0] $end
$var wire 1 C" PC_1 [11] $end
$var wire 1 D" PC_1 [10] $end
$var wire 1 E" PC_1 [9] $end
$var wire 1 F" PC_1 [8] $end
$var wire 1 G" PC_1 [7] $end
$var wire 1 H" PC_1 [6] $end
$var wire 1 I" PC_1 [5] $end
$var wire 1 J" PC_1 [4] $end
$var wire 1 K" PC_1 [3] $end
$var wire 1 L" PC_1 [2] $end
$var wire 1 M" PC_1 [1] $end
$var wire 1 N" PC_1 [0] $end
$var wire 1 O" IP [11] $end
$var wire 1 P" IP [10] $end
$var wire 1 Q" IP [9] $end
$var wire 1 R" IP [8] $end
$var wire 1 S" IP [7] $end
$var wire 1 T" IP [6] $end
$var wire 1 U" IP [5] $end
$var wire 1 V" IP [4] $end
$var wire 1 W" IP [3] $end
$var wire 1 X" IP [2] $end
$var wire 1 Y" IP [1] $end
$var wire 1 Z" IP [0] $end
$var wire 1 [" IR [11] $end
$var wire 1 \" IR [10] $end
$var wire 1 ]" IR [9] $end
$var wire 1 ^" IR [8] $end
$var wire 1 _" IR [7] $end
$var wire 1 `" IR [6] $end
$var wire 1 a" IR [5] $end
$var wire 1 b" IR [4] $end
$var wire 1 c" IR [3] $end
$var wire 1 d" IR [2] $end
$var wire 1 e" IR [1] $end
$var wire 1 f" IR [0] $end
$scope module ALU_I0 $end
$var wire 1 g" nreset $end
$var wire 1 h" clk $end
$var wire 1 i" opcode [3] $end
$var wire 1 j" opcode [2] $end
$var wire 1 k" opcode [1] $end
$var wire 1 l" opcode [0] $end
$var wire 1 m" operation [3] $end
$var wire 1 n" operation [2] $end
$var wire 1 o" operation [1] $end
$var wire 1 p" operation [0] $end
$var wire 1 q" alu_reg_in [3] $end
$var wire 1 r" alu_reg_in [2] $end
$var wire 1 s" alu_reg_in [1] $end
$var wire 1 t" alu_reg_in [0] $end
$var reg 4 u" w_accu [3:0] $end
$var reg 1 v" zero $end
$var reg 1 w" carry $end
$var wire 1 x" binary_op $end
$var wire 1 y" unary_op $end
$var reg 1 z" CO $end
$var wire 1 {" Y $end
$var wire 1 |" Z $end
$var wire 1 }" Reg_xor [3] $end
$var wire 1 ~" Reg_xor [2] $end
$var wire 1 !# Reg_xor [1] $end
$var wire 1 "# Reg_xor [0] $end
$var reg 4 ## W [3:0] $end
$var wire 1 $# in_A [3] $end
$var wire 1 %# in_A [2] $end
$var wire 1 &# in_A [1] $end
$var wire 1 '# in_A [0] $end
$var wire 1 (# in_B [3] $end
$var wire 1 )# in_B [2] $end
$var wire 1 *# in_B [1] $end
$var wire 1 +# in_B [0] $end
$var wire 1 ,# S [4] $end
$var wire 1 -# S [3] $end
$var wire 1 .# S [2] $end
$var wire 1 /# S [1] $end
$var wire 1 0# S [0] $end
$upscope $end
$upscope $end
$scope module ROM_I0 $end
$var wire 1 1# Q [15] $end
$var wire 1 2# Q [14] $end
$var wire 1 3# Q [13] $end
$var wire 1 4# Q [12] $end
$var wire 1 5# Q [11] $end
$var wire 1 6# Q [10] $end
$var wire 1 7# Q [9] $end
$var wire 1 8# Q [8] $end
$var wire 1 9# Q [7] $end
$var wire 1 :# Q [6] $end
$var wire 1 ;# Q [5] $end
$var wire 1 <# Q [4] $end
$var wire 1 =# Q [3] $end
$var wire 1 ># Q [2] $end
$var wire 1 ?# Q [1] $end
$var wire 1 @# Q [0] $end
$var wire 1 A# A [11] $end
$var wire 1 B# A [10] $end
$var wire 1 C# A [9] $end
$var wire 1 D# A [8] $end
$var wire 1 E# A [7] $end
$var wire 1 F# A [6] $end
$var wire 1 G# A [5] $end
$var wire 1 H# A [4] $end
$var wire 1 I# A [3] $end
$var wire 1 J# A [2] $end
$var wire 1 K# A [1] $end
$var wire 1 L# A [0] $end
$upscope $end
$scope module RAM_I0 $end
$var wire 1 M# Q [3] $end
$var wire 1 N# Q [2] $end
$var wire 1 O# Q [1] $end
$var wire 1 P# Q [0] $end
$var wire 1 Q# A [7] $end
$var wire 1 R# A [6] $end
$var wire 1 S# A [5] $end
$var wire 1 T# A [4] $end
$var wire 1 U# A [3] $end
$var wire 1 V# A [2] $end
$var wire 1 W# A [1] $end
$var wire 1 X# A [0] $end
$var wire 1 Y# D [3] $end
$var wire 1 Z# D [2] $end
$var wire 1 [# D [1] $end
$var wire 1 \# D [0] $end
$var wire 1 ]# WEN $end
$upscope $end
$scope module EE_I0 $end
$var wire 1 ^# Q [7] $end
$var wire 1 _# Q [6] $end
$var wire 1 `# Q [5] $end
$var wire 1 a# Q [4] $end
$var wire 1 b# Q [3] $end
$var wire 1 c# Q [2] $end
$var wire 1 d# Q [1] $end
$var wire 1 e# Q [0] $end
$var wire 1 f# A [7] $end
$var wire 1 g# A [6] $end
$var wire 1 h# A [5] $end
$var wire 1 i# A [4] $end
$var wire 1 j# A [3] $end
$var wire 1 k# A [2] $end
$var wire 1 l# A [1] $end
$var wire 1 m# A [0] $end
$var wire 1 n# D [7] $end
$var wire 1 o# D [6] $end
$var wire 1 p# D [5] $end
$var wire 1 q# D [4] $end
$var wire 1 r# D [3] $end
$var wire 1 s# D [2] $end
$var wire 1 t# D [1] $end
$var wire 1 u# D [0] $end
$var wire 1 v# EN $end
$var wire 1 w# WR $end
$var wire 1 x# RD $end
$var wire 1 y# ERASE $end
$var reg 8 z# Q_i [7:0] $end
$var integer 32 {# i $end
$upscope $end
$upscope $end
$upscope $end
$enddefinitions $end
#0
bx !
1"
0#
bx $
b0 %
bx &
bx '
bx (
x,
x+
x*
x)
x0
x/
x.
x-
r0 1
b1110000011000010111010001011111011101000110110101011111011010010110111001100011 2
bx 3
b101001101110100011000010111001001110100011010010110111001100111001000000111000001100001011101000111010001100101011100100110111000100000 4
bx 5
bx 6
bx 7
bx 8
bx 9
bx :
bx ;
bx <
bx =
bx >
bx ?
bx @
bx A
bx B
bx C
bx D
b0 E
bx F
bx G
xH
x=!
xg"
0I
0>!
0h"
xJ
x?!
xK
x@!
xO
x\!
xN
x[!
xM
xZ!
xL
xY!
bx P
bx Q
x]
xL!
xL#
x\
xK!
xK#
x[
xJ!
xJ#
xZ
xI!
xI#
xY
xH!
xH#
xX
xG!
xG#
xW
xF!
xF#
xV
xE!
xE#
xU
xD!
xD#
xT
xC!
xC#
xS
xB!
xB#
xR
xA!
xA#
xi
xX!
x@#
xh
xW!
x?#
xg
xV!
x>#
xf
xU!
x=#
xe
xT!
x<#
xd
xS!
x;#
xc
xR!
x:#
xb
xQ!
x9#
xa
xP!
x8#
x`
xO!
x7#
x_
xN!
x6#
x^
xM!
x5#
xq
x*"
xX#
xp
x)"
xW#
xo
x("
xV#
xn
x'"
xU#
xm
x&"
xT#
xl
x%"
xS#
xk
x$"
xR#
xj
x#"
xQ#
xu
x."
xP#
xt
x-"
xO#
xs
x,"
xN#
xr
x+"
xM#
xy
x2"
x\#
xx
x1"
x[#
xw
x0"
xZ#
xv
x/"
xY#
xz
x]#
x~
xd!
xw#
x}
xc!
xx#
x|
xb!
xy#
x{
xa!
x(!
xl!
xu#
x'!
xk!
xt#
x&!
xj!
xs#
x%!
xi!
xr#
x$!
xh!
xq#
x#!
xg!
xp#
x"!
xf!
xo#
x!!
xe!
xn#
x0!
xt!
xe#
x/!
xs!
xd#
x.!
xr!
xc#
x-!
xq!
xb#
x,!
xp!
xa#
x+!
xo!
x`#
x*!
xn!
x_#
x)!
xm!
x^#
x8!
x|!
xm#
x7!
x{!
xl#
x6!
xz!
xk#
x5!
xy!
xj#
x4!
xx!
xi#
x3!
xw!
xh#
x2!
xv!
xg#
x1!
xu!
xf#
x<!
x4#
x;!
x3#
x:!
x2#
x9!
x1#
x`!
x_!
x^!
x]!
x""
x!"
x~!
x}!
bx 3"
x7"
x6"
x5"
x4"
x;"
x:"
x9"
x8"
x?"
xt"
x>"
xs"
x="
xr"
x<"
xq"
x@"
xA"
bx B"
xN"
xM"
xL"
xK"
xJ"
xI"
xH"
xG"
xF"
xE"
xD"
xC"
xZ"
xY"
xX"
xW"
xV"
xU"
xT"
xS"
xR"
xQ"
xP"
xO"
xf"
xe"
xd"
xc"
xb"
xp"
xa"
xo"
x`"
xn"
x_"
xm"
x^"
xl"
x]"
xk"
x\"
xj"
x["
xi"
bx u"
bx v"
bx w"
xx"
xy"
bx z"
x{"
x|"
x"#
x!#
x~"
x}"
bx ##
x'#
x&#
x%#
x$#
x+#
x*#
x)#
x(#
x0#
x/#
x.#
x-#
x,#
1v#
bx z#
b100000000 {#
b100000000 {#
b1110000011000010111010001011111011101000110110101011111011010010110111001100011 2
b101001101110100011000010111001001110100011010010110111001100111001000000111000001100001011101000111010001100101011100100110111000100000 4
bx &
bx '
bx (
1v#
0I
0>!
0h"
xJ
x?!
xK
x@!
xL
xY!
xM
xZ!
xN
x[!
xO
x\!
0#
1"
#14000
r12 1
#27000
b1 %
1I
1>!
1h"
b0 3"
0z
0]#
#30000
b0 $
b0 &
b0 '
b0 (
0J
0?!
0K
0@!
0O
0\!
0N
0[!
0M
0Z!
0L
0Y!
0H
0=!
0g"
b0 u"
b0 w"
b0 v"
b0 B"
0A"
0@"
0Z"
0Y"
0X"
0W"
0V"
0U"
0T"
0S"
0R"
0Q"
0P"
0O"
0`!
0_!
0^!
0]!
08!
0|!
0m#
07!
0{!
0l#
06!
0z!
0k#
05!
0y!
0j#
04!
0x!
0i#
03!
0w!
0h#
02!
0v!
0g#
01!
0u!
0f#
0(!
0l!
0u#
0'!
0k!
0t#
0&!
0j!
0s#
0%!
0i!
0r#
0$!
0h!
0q#
0#!
0g!
0p#
0"!
0f!
0o#
0!!
0e!
0n#
0~
0d!
0w#
0}
0c!
0x#
0|
0b!
0y#
0{
0a!
0""
0!"
0~!
0}!
0]
0L!
0L#
0\
0K!
0K#
0[
0J!
0J#
0Z
0I!
0I#
0Y
0H!
0H#
0X
0G!
0G#
0W
0F!
0F#
0V
0E!
0E#
0U
0D!
0D#
0T
0C!
0C#
0S
0B!
0B#
0R
0A!
0A#
0;"
0:"
09"
08"
b0 Q
b0 P
0,
0+
0*
0)
00
0/
0.
0-
0m
0&"
0T#
0l
0%"
0S#
0k
0$"
0R#
0j
0#"
0Q#
0q
0*"
0X#
0p
0)"
0W#
0o
0("
0V#
0n
0'"
0U#
#32000
09!
01#
0:!
02#
0;!
03#
0<!
04#
1^
1M!
15#
1_
1N!
16#
0`
0O!
07#
1a
1P!
18#
0b
0Q!
09#
0c
0R!
0:#
1d
1S!
1;#
1e
1T!
1<#
0f
0U!
0=#
0g
0V!
0>#
0h
0W!
0?#
0i
0X!
0@#
1)!
1m!
1^#
0*!
0n!
0_#
1+!
1o!
1`#
0,!
0p!
0a#
0-!
0q!
0b#
0.!
0r!
0c#
1/!
1s!
1d#
00!
0t!
0e#
0C"
0D"
0E"
0F"
0G"
0H"
0I"
0J"
0K"
0L"
0M"
1N"
0f"
0e"
0d"
0c"
1b"
1p"
1a"
1o"
0`"
0n"
0_"
0m"
1^"
1l"
0]"
0k"
1\"
1j"
1["
1i"
07"
06"
05"
04"
0?"
0t"
0>"
0s"
0="
0r"
0<"
0q"
0y
02"
0\#
0x
01"
0[#
0w
00"
0Z#
0v
0/"
0Y#
0y"
0x"
1'#
1&#
1%#
1$#
1+#
1*#
1)#
1(#
1{"
1"#
1!#
1~"
1}"
b0 ##
1|"
#34000
1,#
1-#
1.#
1/#
10#
0r
0+"
0M#
0s
0,"
0N#
0t
0-"
0O#
0u
0."
0P#
b0 z"
#39000
b0 %
0I
0>!
0h"
#52000
b1 %
1I
1>!
1h"
#64000
b0 %
0I
0>!
0h"
#77000
b1 %
1I
1>!
1h"
#89000
b0 %
0I
0>!
0h"
#102000
b1 %
1I
1>!
1h"
#114000
b0 %
0I
0>!
0h"
#127000
b1 %
1I
1>!
1h"
#139000
b0 %
0I
0>!
0h"
#152000
b1 %
1I
1>!
1h"
#164000
b0 %
0I
0>!
0h"
#177000
b1 %
1I
1>!
1h"
#189000
b0 %
0I
0>!
0h"
#202000
b1 %
1I
1>!
1h"
#214000
b0 %
0I
0>!
0h"
#227000
b1 %
1I
1>!
1h"
#239000
b0 %
0I
0>!
0h"
#252000
b1 %
1I
1>!
1h"
#264000
b0 %
0I
0>!
0h"
#277000
b1 %
1I
1>!
1h"
#289000
b0 %
0I
0>!
0h"
#302000
b1 %
1I
1>!
1h"
#314000
b0 %
0I
0>!
0h"
#327000
b1 %
1I
1>!
1h"
#339000
b0 %
0I
0>!
0h"
#352000
b1 %
1I
1>!
1h"
#364000
b0 %
0I
0>!
0h"
#377000
b1 %
1I
1>!
1h"
#389000
b0 %
0I
0>!
0h"
#402000
b1 %
1I
1>!
1h"
#414000
b0 %
0I
0>!
0h"
#427000
b1 %
1I
1>!
1h"
#439000
b0 %
0I
0>!
0h"
#452000
b1 %
1I
1>!
1h"
#464000
b0 %
0I
0>!
0h"
#477000
b1 %
1I
1>!
1h"
#489000
b0 %
0I
0>!
0h"
#502000
b1 %
1I
1>!
1h"
#514000
b0 %
0I
0>!
0h"
#527000
b1 %
1I
1>!
1h"
#539000
b0 %
0I
0>!
0h"
#552000
b1 %
1I
1>!
1h"
#564000
b0 %
0I
0>!
0h"
#577000
b1 %
1I
1>!
1h"
#589000
b0 %
0I
0>!
0h"
#602000
b1 %
1I
1>!
1h"
#614000
b0 %
0I
0>!
0h"
#627000
b1 %
1I
1>!
1h"
#639000
b0 %
0I
0>!
0h"
#652000
b1 %
1I
1>!
1h"
#664000
b0 %
0I
0>!
0h"
#677000
b1 %
1I
1>!
1h"
#689000
b0 %
0I
0>!
0h"
#702000
b1 %
1I
1>!
1h"
#714000
b0 %
0I
0>!
0h"
#727000
b1 %
1I
1>!
1h"
#739000
b0 %
0I
0>!
0h"
#752000
b1 %
1I
1>!
1h"
#764000
b0 %
0I
0>!
0h"
#777000
b1 %
1I
1>!
1h"
#789000
b0 %
0I
0>!
0h"
#802000
b1 %
1I
1>!
1h"
#814000
b0 %
0I
0>!
0h"
#827000
b1 %
1I
1>!
1h"
#839000
b0 %
0I
0>!
0h"
#852000
b1 %
1I
1>!
1h"
#864000
b0 %
0I
0>!
0h"
#877000
b1 %
1I
1>!
1h"
#889000
b0 %
0I
0>!
0h"
#902000
b1 %
1I
1>!
1h"
#914000
b0 %
0I
0>!
0h"
#927000
b1 %
1I
1>!
1h"
#939000
b0 %
0I
0>!
0h"
#952000
b1 %
1I
1>!
1h"
#964000
b0 %
0I
0>!
0h"
#977000
b1 %
1I
1>!
1h"
#989000
b0 %
0I
0>!
0h"
#1002000
b1 %
1I
1>!
1h"
#1014000
b0 %
0I
0>!
0h"
#1027000
b1 %
1I
1>!
1h"
#1030000
b1110010011001010111001101100101011101000011110100110001 4
b1 $
1H
1=!
1g"
#1039000
b0 %
0I
0>!
0h"
#1052000
b1 %
1I
1>!
1h"
b1 B"
1]
1L!
1L#
#1054000
1c
1R!
1:#
0d
0S!
0;#
0e
0T!
0<#
1M"
0N"
0b"
0p"
0a"
0o"
1`"
1n"
0&#
0%#
0$#
0*#
0)#
0(#
0{"
0"#
0!#
0~"
0}"
#1056000
0,#
0-#
0.#
00#
#1064000
b0 %
0I
0>!
0h"
#1077000
b1 %
1I
1>!
1h"
b10 B"
0]
0L!
0L#
1\
1K!
1K#
#1079000
1e
1T!
1<#
1N"
1b"
1p"
#1089000
b0 %
0I
0>!
0h"
#1102000
b1 %
1I
1>!
1h"
b11 B"
1]
1L!
1L#
#1104000
1`
1O!
17#
1b
1Q!
19#
1d
1S!
1;#
1L"
0M"
0N"
1a"
1o"
1_"
1m"
1]"
1k"
1&#
1%#
1$#
1*#
1)#
1(#
#1106000
1,#
1-#
1.#
#1114000
b0 %
0I
0>!
0h"
#1127000
b1 %
1I
1>!
1h"
b0 B"
0]
0L!
0L#
0\
0K!
0K#
#1129000
0`
0O!
07#
0b
0Q!
09#
0c
0R!
0:#
0L"
1N"
0`"
0n"
0_"
0m"
0]"
0k"
1{"
1"#
1!#
1~"
1}"
#1131000
10#
#1139000
b0 %
0I
0>!
0h"
#1152000
b1 %
1I
1>!
1h"
b1 B"
1]
1L!
1L#
#1154000
1c
1R!
1:#
0d
0S!
0;#
0e
0T!
0<#
1M"
0N"
0b"
0p"
0a"
0o"
1`"
1n"
0&#
0%#
0$#
0*#
0)#
0(#
0{"
0"#
0!#
0~"
0}"
#1156000
0,#
0-#
0.#
00#
#1164000
b0 %
0I
0>!
0h"
#1177000
b1 %
1I
1>!
1h"
b10 B"
0]
0L!
0L#
1\
1K!
1K#
#1179000
1e
1T!
1<#
1N"
1b"
1p"
#1189000
b0 %
0I
0>!
0h"
#1202000
b1 %
1I
1>!
1h"
b11 B"
1]
1L!
1L#
#1204000
1`
1O!
17#
1b
1Q!
19#
1d
1S!
1;#
1L"
0M"
0N"
1a"
1o"
1_"
1m"
1]"
1k"
1&#
1%#
1$#
1*#
1)#
1(#
#1206000
1,#
1-#
1.#
#1214000
b0 %
0I
0>!
0h"
#1227000
b1 %
1I
1>!
1h"
b0 B"
0]
0L!
0L#
0\
0K!
0K#
#1229000
0`
0O!
07#
0b
0Q!
09#
0c
0R!
0:#
0L"
1N"
0`"
0n"
0_"
0m"
0]"
0k"
1{"
1"#
1!#
1~"
1}"
#1231000
10#
#1239000
b0 %
0I
0>!
0h"
#1252000
b1 %
1I
1>!
1h"
b1 B"
1]
1L!
1L#
#1254000
1c
1R!
1:#
0d
0S!
0;#
0e
0T!
0<#
1M"
0N"
0b"
0p"
0a"
0o"
1`"
1n"
0&#
0%#
0$#
0*#
0)#
0(#
0{"
0"#
0!#
0~"
0}"
#1256000
0,#
0-#
0.#
00#
#1264000
b0 %
0I
0>!
0h"
#1277000
b1 %
1I
1>!
1h"
b10 B"
0]
0L!
0L#
1\
1K!
1K#
#1279000
1e
1T!
1<#
1N"
1b"
1p"
#1289000
b0 %
0I
0>!
0h"
#1302000
b1 %
1I
1>!
1h"
b11 B"
1]
1L!
1L#
#1304000
1`
1O!
17#
1b
1Q!
19#
1d
1S!
1;#
1L"
0M"
0N"
1a"
1o"
1_"
1m"
1]"
1k"
1&#
1%#
1$#
1*#
1)#
1(#
#1306000
1,#
1-#
1.#
#1314000
b0 %
0I
0>!
0h"
#1327000
b1 %
1I
1>!
1h"
b0 B"
0]
0L!
0L#
0\
0K!
0K#
#1329000
0`
0O!
07#
0b
0Q!
09#
0c
0R!
0:#
0L"
1N"
0`"
0n"
0_"
0m"
0]"
0k"
1{"
1"#
1!#
1~"
1}"
#1331000
10#
#1339000
b0 %
0I
0>!
0h"
#1352000
b1 %
1I
1>!
1h"
b1 B"
1]
1L!
1L#
#1354000
1c
1R!
1:#
0d
0S!
0;#
0e
0T!
0<#
1M"
0N"
0b"
0p"
0a"
0o"
1`"
1n"
0&#
0%#
0$#
0*#
0)#
0(#
0{"
0"#
0!#
0~"
0}"
#1356000
0,#
0-#
0.#
00#
#1364000
b0 %
0I
0>!
0h"
#1377000
b1 %
1I
1>!
1h"
b10 B"
0]
0L!
0L#
1\
1K!
1K#
#1379000
1e
1T!
1<#
1N"
1b"
1p"
#1389000
b0 %
0I
0>!
0h"
#1402000
b1 %
1I
1>!
1h"
b11 B"
1]
1L!
1L#
#1404000
1`
1O!
17#
1b
1Q!
19#
1d
1S!
1;#
1L"
0M"
0N"
1a"
1o"
1_"
1m"
1]"
1k"
1&#
1%#
1$#
1*#
1)#
1(#
#1406000
1,#
1-#
1.#
#1414000
b0 %
0I
0>!
0h"
#1427000
b1 %
1I
1>!
1h"
b0 B"
0]
0L!
0L#
0\
0K!
0K#
#1429000
0`
0O!
07#
0b
0Q!
09#
0c
0R!
0:#
0L"
1N"
0`"
0n"
0_"
0m"
0]"
0k"
1{"
1"#
1!#
1~"
1}"
#1431000
10#
#1439000
b0 %
0I
0>!
0h"
#1452000
b1 %
1I
1>!
1h"
b1 B"
1]
1L!
1L#
#1454000
1c
1R!
1:#
0d
0S!
0;#
0e
0T!
0<#
1M"
0N"
0b"
0p"
0a"
0o"
1`"
1n"
0&#
0%#
0$#
0*#
0)#
0(#
0{"
0"#
0!#
0~"
0}"
#1456000
0,#
0-#
0.#
00#
#1464000
b0 %
0I
0>!
0h"
#1477000
b1 %
1I
1>!
1h"
b10 B"
0]
0L!
0L#
1\
1K!
1K#
#1479000
1e
1T!
1<#
1N"
1b"
1p"
#1489000
b0 %
0I
0>!
0h"
#1502000
b1 %
1I
1>!
1h"
b11 B"
1]
1L!
1L#
#1504000
1`
1O!
17#
1b
1Q!
19#
1d
1S!
1;#
1L"
0M"
0N"
1a"
1o"
1_"
1m"
1]"
1k"
1&#
1%#
1$#
1*#
1)#
1(#
#1506000
1,#
1-#
1.#
#1514000
b0 %
0I
0>!
0h"
